{
    "notificationType": "SCORING",
    "testInstanceId": "166222f3-689e-4550-8299-49399911c837",
    "notificationId": "00f31962-fda7-4d94-9096-4cf345a73788",
    "notificationEvent": "SCORING_SCORED",
    "eventTime": "2014-03-20T08:06:00.948+0000",
    "tin": 10353151,
    "confidenceLevel": 0.55,
    "scoreData": [
        {
            "scoreComponent": "807.113",
            "traitList": [
                {
                    "traitComponent": "CON",
                    "scoreValue": 1.0,
                    "minScore": 0.0,
                    "maxScore": 1.0
                },
                {
                    "traitComponent": "PRON",
                    "scoreValue": 2.0,
                    "minScore": -3.0,
                    "maxScore": 3.0
                },
                {
                    "traitComponent": "FLU",
                    "scoreValue": 2.0,
                    "minScore": -3.0,
                    "maxScore": 3.0
                }
            ]
        },
        {
            "scoreComponent": "2.4696",
            "traitList": [
                {
                    "traitComponent": "CON",
                    "scoreValue": 1.0,
                    "minScore": 0.0,
                    "maxScore": 1.0
                },
                {
                    "traitComponent": "PRON",
                    "scoreValue": 2,
                    "minScore": -3.0,
                    "maxScore": 3.0
                },
                {
                    "traitComponent": "FLU",
                    "scoreValue": 2,
                    "minScore": -3.0,
                    "maxScore": 3.0
                }
            ]
        },
        {
            "scoreComponent": "1003.392",
            "traitList": [
                {
                    "traitComponent": "CON",
                    "scoreValue": 2,
                    "minScore": 0.0,
                    "maxScore": 5.0
                },
                {
                    "traitComponent": "PRON",
                    "scoreValue": 2,
                    "minScore": -3.0,
                    "maxScore": 3.0
                },
                {
                    "traitComponent": "FLU",
                    "scoreValue": 2,
                    "minScore": -3.0,
                    "maxScore": 3.0
                }
            ]
        },
        {
            "scoreComponent": "813.175",
            "traitList": [
                {
                    "traitComponent": "HOL",
                    "scoreValue": 3.6,
                    "minScore": 0.0,
                    "maxScore": 5.0
                },
                {
                    "traitComponent": "GUM",
                    "scoreValue": 3.5,
                    "minScore": 0.0,
                    "maxScore": 5.0
                },
                {
                    "traitComponent": "CON",
                    "scoreValue": 3.8,
                    "minScore": 0.0,
                    "maxScore": 5.0
                }
            ]
        },
        {
            "scoreComponent": "802.1304",
            "traitList": [
                {
                    "traitComponent": "91-ITEM-LO",
                    "scoreValue": 2.0,
                    "minScore": 0.0,
                    "maxScore": 1.0
                }
            ]
        },
        {
            "scoreComponent": "1006.1",
            "scoreState": "UNSCORABLE"
        }
    ]
}